{
  "extends": "@alx13/tslint-config",
  "rules": {
    "no-console": false,
    "prefer-function-over-method": false,
    "max-classes-per-file": false,
    "no-null-keyword": false,
    "no-submodule-imports": [
      true,
      "#",
      "@sch"
    ],
    "no-implicit-dependencies": [
      true,
      ["#"]
    ],
    "no-import-side-effect": [
      true,
      {
        "ignore-module": "(^reflect-metadata$)"
      }
    ]
  }
}
